id,name,model_id:id,group_id:id,perm_read,perm_write,perm_create,perm_unlink
access_tarjetas_tarjeta,access_tarjetas_tarjeta,tarjetas_master.model_tarjetas_tarjeta,base.group_user,1,1,1,1
access_tarjetas_cuotas,access_tarjetas_cuotas,tarjetas_master.model_tarjetas_cuotas,base.group_user,1,1,1,1
